…
## Load and Read DNA Objects

Here we create a simple DNA container object

``` r
library(lampshade)
## basic example code

dframe <- dna_frame(random_sequence_generator(500))
dframe
#> $seqdata
#> # A tibble: 500 x 3
#>    position fwd   cmp  
#>       <dbl> <chr> <chr>
#>  1        1 w     w    
#>  2        2 c     g    
#>  3        3 a     t    
#>  4        4 m     k    
#>  5        5 k     m    
#>  6        6 a     t    
#>  7        7 g     c    
#>  8        8 t     a    
#>  9        9 g     c    
#> 10       10 c     g    
#> # ... with 490 more rows
…
Now, we input them into a lamp primer list object

``` r
wsp_lamp <- lamp_frame(wspseq, wf3, wf2, wf1c, wb1c, wb2, wb3, wlf, wlb)
wsp_lamp
#> $seqdata
#> # A tibble: 222 x 3
#>    position fwd   cmp  
#>       <dbl> <chr> <chr>
#>  1        1 t     a    
#>  2        2 g     c    
#>  3        3 c     g    
#>  4        4 c     g    
#>  5        5 t     a    
#>  6        6 a     t    
#>  7        7 t     a    
#>  8        8 c     g    
#>  9        9 a     t    
#> 10       10 c     g    
#> # ... with 212 more rows
…
